{
    "key": "group_63639bea371a3",
    "title": "Inställningar",
    "fields": [
        {
            "key": "field_63639c7220c8a",
            "label": "Where should the popup be shown",
            "name": "where",
            "type": "button_group",
            "instructions": "",
            "required": 0,
            "conditional_logic": 0,
            "wrapper": {
                "width": "",
                "class": "",
                "id": ""
            },
            "choices": {
                "everywhere": "Everywhere",
                "custom": "Custom"
            },
            "default_value": "everywhere",
            "return_format": "value",
            "allow_null": 0,
            "layout": "horizontal"
        },
        {
            "key": "field_63639beb20c86",
            "label": "Custom",
            "name": "custom",
            "type": "flexible_content",
            "instructions": "",
            "required": 0,
            "conditional_logic": [
                [
                    {
                        "field": "field_63639c7220c8a",
                        "operator": "==",
                        "value": "custom"
                    }
                ]
            ],
            "wrapper": {
                "width": "",
                "class": "",
                "id": ""
            },
            "layouts": {
                "layout_63639c3dca0c3": {
                    "key": "layout_63639c3dca0c3",
                    "name": "product_categories",
                    "label": "Produktkategori",
                    "display": "block",
                    "sub_fields": [
                        {
                            "key": "field_63639cf820c8b",
                            "label": "",
                            "name": "categories",
                            "type": "taxonomy",
                            "instructions": "",
                            "required": 0,
                            "conditional_logic": 0,
                            "wrapper": {
                                "width": "",
                                "class": "",
                                "id": ""
                            },
                            "taxonomy": "product_cat",
                            "add_term": 0,
                            "save_terms": 0,
                            "load_terms": 0,
                            "return_format": "id",
                            "field_type": "multi_select",
                            "allow_null": 0,
                            "multiple": 0
                        }
                    ],
                    "min": "",
                    "max": ""
                },
                "layout_63639d4e20c8c": {
                    "key": "layout_63639d4e20c8c",
                    "name": "posts",
                    "label": "Posts",
                    "display": "block",
                    "sub_fields": [
                        {
                            "key": "field_63639d5f20c8d",
                            "label": "",
                            "name": "post",
                            "type": "post_object",
                            "instructions": "",
                            "required": 0,
                            "conditional_logic": 0,
                            "wrapper": {
                                "width": "",
                                "class": "",
                                "id": ""
                            },
                            "post_type": "",
                            "taxonomy": "",
                            "return_format": "id",
                            "multiple": 1,
                            "allow_null": 0,
                            "ui": 1
                        }
                    ],
                    "min": "",
                    "max": ""
                }
            },
            "min": "",
            "max": "",
            "button_label": "Lägg till rad"
        },
        {
            "key": "field_6363a2a57f7bc",
            "label": "What should happen when the popup has been showen once",
            "name": "after_shown",
            "type": "select",
            "instructions": "",
            "required": 0,
            "conditional_logic": 0,
            "wrapper": {
                "width": "",
                "class": "",
                "id": ""
            },
            "choices": {
                "session": "It should not be shown anymore this session",
                "week": "It should not be shown anymore for 7 days",
                "nothing": "Continue to show the popup"
            },
            "default_value": "session",
            "return_format": "value",
            "multiple": 0,
            "allow_null": 0,
            "ui": 0,
            "ajax": 0,
            "placeholder": ""
        },
        {
            "key": "field_63639e4ab8d48",
            "label": "Don't show the popup after this time",
            "name": "disable_after",
            "type": "date_time_picker",
            "instructions": "",
            "required": 0,
            "conditional_logic": 0,
            "wrapper": {
                "width": "",
                "class": "",
                "id": ""
            },
            "display_format": "Y-m-d H:i:s",
            "return_format": "Y-m-d H:i:s",
            "first_day": 1
        },
        {
            "key": "field_6363a23a7f7bb",
            "label": "Show the popup after this amount of seconds",
            "name": "delay",
            "type": "range",
            "instructions": "",
            "required": 0,
            "conditional_logic": 0,
            "wrapper": {
                "width": "",
                "class": "",
                "id": ""
            },
            "default_value": 5,
            "min": "",
            "max": 120,
            "step": "",
            "prepend": "",
            "append": ""
        }
    ],
    "location": [
        [
            {
                "param": "post_type",
                "operator": "==",
                "value": "popup"
            }
        ]
    ],
    "menu_order": 0,
    "position": "side",
    "style": "default",
    "label_placement": "top",
    "instruction_placement": "label",
    "hide_on_screen": "",
    "active": true,
    "description": "",
    "show_in_rest": 0,
    "modified": 1667566989
}